{
  "albums" : {
    "href" : "https://api.spotify.com/v1/search?query=Metallica&type=album&offset=0&limit=20",
    "items" : [ {
      "album_type" : "album",
      "artists" : [ {
        "external_urls" : {
          "spotify" : "https://open.spotify.com/artist/2ye2Wgw4gimLv2eAKyk1NB"
        },
        "href" : "https://api.spotify.com/v1/artists/2ye2Wgw4gimLv2eAKyk1NB",
        "id" : "2ye2Wgw4gimLv2eAKyk1NB",
        "name" : "Metallica",
        "type" : "artist",
        "uri" : "spotify:artist:2ye2Wgw4gimLv2eAKyk1NB"
      } ],
      "available_markets" : [ "AD", "AE", "AG", "AL", "AM", "AR", "AT", "AU", "AZ", "BA", "BB", "BD", "BE", "BF", "BG", "BH", "BI", "BN", "BO", "BR", "BS", "BT", "BW", "BY", "BZ", "CH", "CL", "CM", "CO", "CR", "CV", "CW", "CY", "CZ", "DE", "DK", "DM", "DO", "DZ", "EC", "EE", "EG", "ES", "FI", "FJ", "FM", "FR", "GA", "GB", "GD", "GE", "GH", "GM", "GN", "GQ", "GR", "GT", "GW", "GY", "HK", "HN", "HR", "HT", "HU", "ID", "IE", "IL", "IN", "IS", "IT", "JM", "JO", "JP", "KE", "KG", "KH", "KI", "KM", "KN", "KR", "KW", "KZ", "LA", "LB", "LC", "LI", "LK", "LR", "LS", "LT", "LU", "LV", "MA", "MC", "MD", "ME", "MH", "MK", "ML", "MN", "MO", "MR", "MT", "MV", "MW", "MX", "MY", "NA", "NE", "NG", "NI", "NL", "NO", "NP", "NR", "NZ", "OM", "PA", "PE", "PG", "PH", "PK", "PL", "PS", "PT", "PW", "PY", "QA", "RO", "RS", "RU", "RW", "SA", "SB", "SC", "SE", "SG", "SI", "SK", "SL", "SM", "SN", "SR", "ST", "SV", "SZ", "TD", "TG", "TH", "TL", "TN", "TO", "TR", "TT", "TV", "TW", "TZ", "UA", "UG", "UY", "UZ", "VC", "VN", "VU", "WS", "XK", "ZA", "ZW" ],
      "external_urls" : {
        "spotify" : "https://open.spotify.com/album/0vshXZYhBkbIoqxyC2fXcF"
      },
      "href" : "https://api.spotify.com/v1/albums/0vshXZYhBkbIoqxyC2fXcF",
      "id" : "0vshXZYhBkbIoqxyC2fXcF",
      "images" : [ {
        "height" : 640,
        "url" : "https://i.scdn.co/image/ab67616d0000b27375e6375e11550746705a9645",
        "width" : 640
      }, {
        "height" : 300,
        "url" : "https://i.scdn.co/image/ab67616d00001e0275e6375e11550746705a9645",
        "width" : 300
      }, {
        "height" : 64,
        "url" : "https://i.scdn.co/image/ab67616d0000485175e6375e11550746705a9645",
        "width" : 64
      } ],
      "name" : "Garage Inc.",
      "release_date" : "1998-01-01",
      "release_date_precision" : "day",
      "total_tracks" : 27,
      "type" : "album",
      "uri" : "spotify:album:0vshXZYhBkbIoqxyC2fXcF"
    }],
    "limit" : 20,
    "next" : "https://api.spotify.com/v1/search?query=Metallica&type=album&offset=20&limit=20",
    "offset" : 0,
    "previous" : null,
    "total" : 271
  },
  "artists" : {
    "href" : "https://api.spotify.com/v1/search?query=Metallica&type=artist&offset=0&limit=20",
    "items" : [ {
      "external_urls" : {
        "spotify" : "https://open.spotify.com/artist/2ye2Wgw4gimLv2eAKyk1NB"
      },
      "followers" : {
        "href" : null,
        "total" : 16891294
      },
      "genres" : [ "hard rock", "metal", "old school thrash", "rock", "thrash metal" ],
      "href" : "https://api.spotify.com/v1/artists/2ye2Wgw4gimLv2eAKyk1NB",
      "id" : "2ye2Wgw4gimLv2eAKyk1NB",
      "images" : [ {
        "height" : 640,
        "url" : "https://i.scdn.co/image/5a06711d7fc48d5e0e3f9a3274ffed3f0af1bd91",
        "width" : 640
      }, {
        "height" : 320,
        "url" : "https://i.scdn.co/image/0c22030833eb55c14013bb36eb6a429328868c29",
        "width" : 320
      }, {
        "height" : 160,
        "url" : "https://i.scdn.co/image/c1fb4d88de092b5617e649bd4c406b5cab7d3ddd",
        "width" : 160
      } ],
      "name" : "Metallica",
      "popularity" : 84,
      "type" : "artist",
      "uri" : "spotify:artist:2ye2Wgw4gimLv2eAKyk1NB"
    } ],
    "limit" : 20,
    "next" : null,
    "offset" : 0,
    "previous" : null,
    "total" : 7
  },
  "tracks" : {
    "href" : "https://api.spotify.com/v1/search?query=Metallica&type=track&offset=0&limit=20",
    "items" : [ {
      "album" : {
        "album_type" : "album",
        "artists" : [ {
          "external_urls" : {
            "spotify" : "https://open.spotify.com/artist/2ye2Wgw4gimLv2eAKyk1NB"
          },
          "href" : "https://api.spotify.com/v1/artists/2ye2Wgw4gimLv2eAKyk1NB",
          "id" : "2ye2Wgw4gimLv2eAKyk1NB",
          "name" : "Metallica",
          "type" : "artist",
          "uri" : "spotify:artist:2ye2Wgw4gimLv2eAKyk1NB"
        } ],
        "available_markets" : [ "AD", "AE", "AG", "AL", "AM", "AR", "AT", "AU", "AZ", "BA", "BB", "BD", "BE", "BF", "BG", "BH", "BI", "BN", "BO", "BR", "BS", "BT", "BW", "BY", "BZ", "CH", "CL", "CM", "CO", "CR", "CV", "CW", "CY", "CZ", "DE", "DK", "DM", "DO", "DZ", "EC", "EE", "EG", "ES", "FI", "FJ", "FM", "FR", "GA", "GB", "GD", "GE", "GH", "GM", "GN", "GQ", "GR", "GT", "GW", "GY", "HK", "HN", "HR", "HT", "HU", "ID", "IE", "IL", "IN", "IS", "IT", "JM", "JO", "JP", "KE", "KG", "KH", "KI", "KM", "KN", "KR", "KW", "KZ", "LA", "LB", "LC", "LI", "LK", "LR", "LS", "LT", "LU", "LV", "MA", "MC", "MD", "ME", "MH", "MK", "ML", "MN", "MO", "MR", "MT", "MV", "MW", "MX", "MY", "NA", "NE", "NG", "NI", "NL", "NO", "NP", "NR", "NZ", "OM", "PA", "PE", "PG", "PH", "PK", "PL", "PS", "PT", "PW", "PY", "QA", "RO", "RS", "RU", "RW", "SA", "SB", "SC", "SE", "SG", "SI", "SK", "SL", "SM", "SN", "SR", "ST", "SV", "SZ", "TD", "TG", "TH", "TL", "TN", "TO", "TR", "TT", "TV", "TW", "TZ", "UA", "UG", "UY", "UZ", "VC", "VN", "VU", "WS", "XK", "ZA", "ZW" ],
        "external_urls" : {
          "spotify" : "https://open.spotify.com/album/2Kh43m04B1UkVcpcRa1Zug"
        },
        "href" : "https://api.spotify.com/v1/albums/2Kh43m04B1UkVcpcRa1Zug",
        "id" : "2Kh43m04B1UkVcpcRa1Zug",
        "images" : [ {
          "height" : 640,
          "url" : "https://i.scdn.co/image/ab67616d0000b273cf84c5b276431b473e924802",
          "width" : 640
        }, {
          "height" : 300,
          "url" : "https://i.scdn.co/image/ab67616d00001e02cf84c5b276431b473e924802",
          "width" : 300
        }, {
          "height" : 64,
          "url" : "https://i.scdn.co/image/ab67616d00004851cf84c5b276431b473e924802",
          "width" : 64
        } ],
        "name" : "Metallica",
        "release_date" : "1991-08-12",
        "release_date_precision" : "day",
        "total_tracks" : 12,
        "type" : "album",
        "uri" : "spotify:album:2Kh43m04B1UkVcpcRa1Zug"
      },
      "artists" : [ {
        "external_urls" : {
          "spotify" : "https://open.spotify.com/artist/2ye2Wgw4gimLv2eAKyk1NB"
        },
        "href" : "https://api.spotify.com/v1/artists/2ye2Wgw4gimLv2eAKyk1NB",
        "id" : "2ye2Wgw4gimLv2eAKyk1NB",
        "name" : "Metallica",
        "type" : "artist",
        "uri" : "spotify:artist:2ye2Wgw4gimLv2eAKyk1NB"
      } ],
      "available_markets" : [ "AD", "AE", "AG", "AL", "AM", "AR", "AT", "AU", "AZ", "BA", "BB", "BD", "BE", "BF", "BG", "BH", "BI", "BN", "BO", "BR", "BS", "BT", "BW", "BY", "BZ", "CH", "CL", "CM", "CO", "CR", "CV", "CW", "CY", "CZ", "DE", "DK", "DM", "DO", "DZ", "EC", "EE", "EG", "ES", "FI", "FJ", "FM", "FR", "GA", "GB", "GD", "GE", "GH", "GM", "GN", "GQ", "GR", "GT", "GW", "GY", "HK", "HN", "HR", "HT", "HU", "ID", "IE", "IL", "IN", "IS", "IT", "JM", "JO", "JP", "KE", "KG", "KH", "KI", "KM", "KN", "KR", "KW", "KZ", "LA", "LB", "LC", "LI", "LK", "LR", "LS", "LT", "LU", "LV", "MA", "MC", "MD", "ME", "MH", "MK", "ML", "MN", "MO", "MR", "MT", "MV", "MW", "MX", "MY", "NA", "NE", "NG", "NI", "NL", "NO", "NP", "NR", "NZ", "OM", "PA", "PE", "PG", "PH", "PK", "PL", "PS", "PT", "PW", "PY", "QA", "RO", "RS", "RU", "RW", "SA", "SB", "SC", "SE", "SG", "SI", "SK", "SL", "SM", "SN", "SR", "ST", "SV", "SZ", "TD", "TG", "TH", "TL", "TN", "TO", "TR", "TT", "TV", "TW", "TZ", "UA", "UG", "UY", "UZ", "VC", "VN", "VU", "WS", "XK", "ZA", "ZW" ],
      "disc_number" : 1,
      "duration_ms" : 388266,
      "explicit" : false,
      "external_ids" : {
        "isrc" : "GBF089190020"
      },
      "external_urls" : {
        "spotify" : "https://open.spotify.com/track/0nLiqZ6A27jJri2VCalIUs"
      },
      "href" : "https://api.spotify.com/v1/tracks/0nLiqZ6A27jJri2VCalIUs",
      "id" : "0nLiqZ6A27jJri2VCalIUs",
      "is_local" : false,
      "name" : "Nothing Else Matters",
      "popularity" : 78,
      "preview_url" : null,
      "track_number" : 8,
      "type" : "track",
      "uri" : "spotify:track:0nLiqZ6A27jJri2VCalIUs"
    } ],
    "limit" : 1,
    "next" : "https://api.spotify.com/v1/search?query=Metallica&type=track&offset=20&limit=20",
    "offset" : 0,
    "previous" : null,
    "total" : 2828
  }
}